R tidyverse - kompakt: All in One View
…
R

dplyr::storms

OUTPUT

# A tibble: 19,537 × 13
   name   year month   day  hour   lat  long status      category  wind pressure
   <chr> <dbl> <dbl> <int> <dbl> <dbl> <dbl> <fct>          <dbl> <int>    <int>
 1 Amy    1975     6    27     0  27.5 -79   tropical d…       NA    25     1013
 2 Amy    1975     6    27     6  28.5 -79   tropical d…       NA    25     1013
 3 Amy    1975     6    27    12  29.5 -79   tropical d…       NA    25     1013
 4 Amy    1975     6    27    18  30.5 -79   tropical d…       NA    25     1013
 5 Amy    1975     6    28     0  31.5 -78.8 tropical d…       NA    25     1012
 6 Amy    1975     6    28     6  32.4 -78.7 tropical d…       NA    25     1012
 7 Amy    1975     6    28    12  33.3 -78   tropical d…       NA    25     1011
 8 Amy    1975     6    28    18  34   -77   tropical d…       NA    30     1006
 9 Amy    1975     6    29     0  34.4 -75.8 tropical s…       NA    35     1004
10 Amy    1975     6    29     6  34   -74.8 tropical s…       NA    40     1002
# ℹ 19,527 more rows
# ℹ 2 more variables: tropicalstorm_force_diameter <int>,
#   hurricane_force_diameter <int>
…
# Ausgangsdatensatz = Beginn der Pipe
storms |>
  # Zeilen filtern
  filter(year < 1980) |>
  # Spalten auswählen
  select(name, year, status) |>
  # doppelte Zeilen entfernen
  distinct() |>
  # sortieren
  arrange(year, status)

OUTPUT

# A tibble: 129 × 3
   name      year status
   <chr>    <dbl> <fct>
 1 Amy       1975 extratropical
 2 Blanche   1975 extratropical
 3 Doris     1975 extratropical
 4 Eloise    1975 extratropical
 5 Gladys    1975 extratropical
 6 Hallie    1975 extratropical
 7 Blanche   1975 hurricane
 8 Caroline  1975 hurricane
 9 Doris     1975 hurricane
10 Eloise    1975 hurricane
# ℹ 119 more rows
…
Ein einfaches Beispiel:

R

storms |>
  # Tabelle nach Jahr gruppieren
  group_by(year) |>
  # maximale Windgeschwindigkeit pro Jahr berechnen
  summarize(max_wind = max(wind))

OUTPUT

# A tibble: 48 × 2
    year max_wind
   <dbl>    <int>
 1  1975      120
 2  1976      105
 3  1977      150
 4  1978      120
 5  1979      150
 6  1980      165
 7  1981      115
 8  1982      115
 9  1983      100
10  1984      115
# ℹ 38 more rows
…
