…
``` r
# Ausgangsdatensatz = Beginn der Pipe
storms |>
  # Zeilen filtern
  filter(year < 1980) |>
  # Spalten auswählen
  select(name, year, status) |>
  # doppelte Zeilen entfernen
  distinct() |>
  # sortieren
  arrange(year, status)
```

``` output
# A tibble: 129 × 3
   name      year status       
   <chr>    <dbl> <fct>        
 1 Amy       1975 extratropical
 2 Blanche   1975 extratropical
 3 Doris     1975 extratropical
 4 Eloise    1975 extratropical
 5 Gladys    1975 extratropical
 6 Hallie    1975 extratropical
 7 Blanche   1975 hurricane    
 8 Caroline  1975 hurricane    
 9 Doris     1975 hurricane    
10 Eloise    1975 hurricane    
# ℹ 119 more rows
```
…
Die Funktion `summarize()` ist die am häufigsten verwendete Funktion, um Werte innerhalb dieser Gruppen zu aggregieren.

Ein einfaches Beispiel:


``` r
storms |>
  # Tabelle nach Jahr gruppieren
  group_by(year) |>
  # maximale Windgeschwindigkeit pro Jahr berechnen
  summarize(max_wind = max(wind))
```

``` output
# A tibble: 48 × 2
    year max_wind
   <dbl>    <int>
 1  1975      120
 2  1976      105
 3  1977      150
 4  1978      120
 5  1979      150
 6  1980      165
 7  1981      115
 8  1982      115
 9  1983      100
10  1984      115
# ℹ 38 more rows
```
…
